simulation/qsim/Projeto_ULA.msim.vcd
$comment
	File created using the following command:
		vcd file Projeto_ULA.msim.vcd -direction
$end
$date
	Fri May 31 20:16:02 2024
$end
$version
	ModelSim Version 2020.1
$end
$timescale
	1ps
$end

$scope module Decoder7_5_vlg_vec_tst $end
$var reg 5 ! Entrada [4:0] $end
$var wire 1 " A $end
$var wire 1 # A2 $end
$var wire 1 $ B $end
$var wire 1 % B2 $end
$var wire 1 & C $end
$var wire 1 ' C2 $end
$var wire 1 ( D $end
$var wire 1 ) D2 $end
$var wire 1 * E $end
$var wire 1 + E2 $end
$var wire 1 , F $end
$var wire 1 - F2 $end
$var wire 1 . G $end
$var wire 1 / G2 $end

$scope module i1 $end
$var wire 1 0 gnd $end
$var wire 1 1 vcc $end
$var wire 1 2 unknown $end
$var tri1 1 3 devclrn $end
$var tri1 1 4 devpor $end
$var tri1 1 5 devoe $end
$var wire 1 6 C~output_o $end
$var wire 1 7 A~output_o $end
$var wire 1 8 B~output_o $end
$var wire 1 9 D~output_o $end
$var wire 1 : E~output_o $end
$var wire 1 ; F~output_o $end
$var wire 1 < G~output_o $end
$var wire 1 = C2~output_o $end
$var wire 1 > A2~output_o $end
$var wire 1 ? D2~output_o $end
$var wire 1 @ B2~output_o $end
$var wire 1 A E2~output_o $end
$var wire 1 B G2~output_o $end
$var wire 1 C F2~output_o $end
$var wire 1 D Entrada[2]~input_o $end
$var wire 1 E Entrada[1]~input_o $end
$var wire 1 F Entrada[4]~input_o $end
$var wire 1 G Entrada[3]~input_o $end
$var wire 1 H inst155~0_combout $end
$var wire 1 I Entrada[0]~input_o $end
$var wire 1 J inst155~1_combout $end
$var wire 1 K inst8~0_combout $end
$var wire 1 L inst8~1_combout $end
$var wire 1 M inst425~2_combout $end
$var wire 1 N inst425~3_combout $end
$var wire 1 O inst104~4_combout $end
$var wire 1 P inst104~5_combout $end
$var wire 1 Q inst78~0_combout $end
$var wire 1 R inst78~1_combout $end
$var wire 1 S inst103~0_combout $end
$var wire 1 T inst103~1_combout $end
$var wire 1 U inst86~0_combout $end
$var wire 1 V inst86~1_combout $end
$var wire 1 W inst62~0_combout $end
$var wire 1 X inst66~0_combout $end
$var wire 1 Y inst85~0_combout $end
$var wire 1 Z inst70~combout $end
$var wire 1 [ inst73~0_combout $end
$upscope $end
$upscope $end
$enddefinitions $end
#0
$dumpvars
b0 !
0"
0#
0$
0%
0&
0'
0(
0)
0*
0+
0,
0-
1.
1/
00
11
x2
13
14
15
06
07
08
09
0:
0;
1<
0=
0>
0?
0@
0A
1B
0C
0D
0E
0F
0G
0H
0I
0J
1K
1L
0M
0N
0O
0P
0Q
0R
1S
0T
0U
1V
0W
0X
0Y
1Z
0[
$end
#10000
b1 !
1I
1M
0K
1T
1R
1P
19
1:
1;
0L
1,
1*
1(
17
1"
#20000
b11 !
b10 !
0I
1E
1L
1K
1H
0V
0T
0R
0P
09
0:
0;
0<
07
0"
0.
0,
0*
0(
1T
1J
16
1;
1,
1&
#30000
b11 !
1I
0M
1R
0J
06
1:
1*
0&
#40000
b111 !
b101 !
b100 !
0I
0E
1D
1U
0K
0S
1Q
1O
0H
1V
0R
1J
16
0:
1<
0L
1.
0*
1&
0V
0T
1R
1P
0J
06
19
1:
0;
0<
17
1"
0.
0,
1*
1(
0&
#50000
b101 !
1I
1M
1L
0P
09
07
0"
0(
1N
18
1$
#60000
b111 !
b110 !
0I
1E
0L
1K
1S
0Q
17
1L
1"
0R
0:
07
0"
0*
#70000
b111 !
1I
0M
1V
1T
1R
1P
19
1:
1;
1<
1.
1,
1*
1(
0N
08
0$
#80000
b1111 !
b1011 !
b1001 !
b1000 !
0I
0E
0D
1G
0U
0K
0S
0O
0V
0T
0R
0:
0;
0<
0.
0,
0*
0P
09
0(
#90000
b1001 !
1I
0L
1K
1R
1:
17
1L
1"
1*
07
0"
#100000
b1011 !
b1010 !
0I
1E
1S
1V
0R
1[
1Y
1X
1>
1?
1A
1C
0:
1<
1.
0*
1-
1+
1)
1#
#110000
b1011 !
1I
1M
0K
1T
1R
1P
19
1:
1;
0L
1,
1*
1(
17
1"
#120000
b1111 !
b1101 !
b1100 !
0I
0E
1D
1U
0M
1K
1H
0V
0T
0R
0P
1N
18
09
0:
0;
0<
1L
0.
0,
0*
0(
1$
0N
1T
1J
16
1;
08
07
0"
0$
1,
1&
#130000
b1101 !
1I
1R
0J
06
1:
1*
0&
#140000
b1111 !
b1110 !
0I
1E
0K
0S
1Q
1O
0H
0R
1J
16
0:
0L
0*
1&
0T
1R
1P
0J
06
19
1:
0;
17
1"
0,
1*
1(
0&
#150000
b1111 !
1I
1M
1L
0P
09
07
0"
0(
1N
18
1$
#160000
b11111 !
b10111 !
b10011 !
b10001 !
b10000 !
0I
0E
0D
0G
1F
0L
1K
1S
0Q
0O
1P
19
17
1L
1"
1(
0R
0P
09
0:
07
0"
0*
0(
#170000
b10001 !
1I
0U
0M
0K
1T
1R
1P
19
1:
1;
1,
1*
1(
1V
0N
08
1<
1.
0$
#180000
b10011 !
b10010 !
0I
1E
1U
0L
1K
0S
0V
0T
0R
0P
09
0:
0;
0<
17
1L
1"
0.
0,
0*
0(
07
0"
#190000
b10011 !
1I
0U
1V
1R
1:
1<
1.
1*
0V
0<
0.
#200000
b10111 !
b10101 !
b10100 !
0I
0E
1D
1M
0K
1S
1V
0R
0Y
0X
1W
0Z
0B
1=
0>
0?
0A
0:
1<
1.
0*
0+
0)
0#
1'
0/
#210000
b10101 !
1I
0M
0L
1T
1R
1P
19
1:
1;
17
1"
1,
1*
1(
#220000
b10111 !
b10110 !
0I
1E
1L
1K
1H
0V
0T
0R
0P
09
0:
0;
0<
07
0"
0.
0,
0*
0(
1T
1J
16
1;
1,
1&
#230000
b10111 !
1I
1R
0J
06
1:
1*
0&
#240000
b11111 !
b11011 !
b11001 !
b11000 !
0I
0E
0D
1G
1U
0K
0S
1Q
1O
0H
0R
1J
16
0:
0L
0*
1&
0T
1R
1P
0J
06
19
1:
0;
17
1"
0,
1*
1(
0&
#250000
b11001 !
1I
0U
1M
1L
1K
0P
09
07
0"
0(
1N
18
1$
#260000
b11011 !
b11010 !
0I
1E
1U
1S
0Q
0O
1V
1P
19
1<
1.
1(
0V
0R
0P
09
0:
0<
0.
0*
0(
#270000
b11011 !
1I
0U
0M
0K
1T
1R
1P
19
1:
1;
1,
1*
1(
1V
0N
08
1<
1.
0$
#280000
b11111 !
b11101 !
b11100 !
0I
0E
1D
1K
0S
0V
0T
0R
0P
09
0:
0;
0<
0.
0,
0*
0(
#290000
b11101 !
1I
1M
1R
1:
1*
#300000
b11111 !
b11110 !
0I
1E
0K
1S
1V
0R
1Y
0W
0=
1A
0:
1<
1.
0*
1+
0'
#310000
b11111 !
1I
0M
0L
1T
1R
1P
19
1:
1;
17
1"
1,
1*
1(
#320000
b1111 !
b111 !
b11 !
b1 !
b0 !
0I
0E
0D
0G
0F
1L
1K
0T
0R
0P
0[
0Y
1Z
1B
0A
0C
09
0:
0;
07
0"
0,
0*
0(
0-
0+
1/
#330000
b1 !
1I
1M
0K
1T
1R
1P
19
1:
1;
0L
1,
1*
1(
17
1"
#340000
b11 !
b10 !
0I
1E
1L
1K
1H
0V
0T
0R
0P
09
0:
0;
0<
07
0"
0.
0,
0*
0(
1T
1J
16
1;
1,
1&
#350000
b11 !
1I
0M
1R
0J
06
1:
1*
0&
#360000
b111 !
b101 !
b100 !
0I
0E
1D
1U
0K
0S
1Q
1O
0H
1V
0R
1J
16
0:
1<
0L
1.
0*
1&
0V
0T
1R
1P
0J
06
19
1:
0;
0<
17
1"
0.
0,
1*
1(
0&
#370000
b101 !
1I
1M
1L
0P
09
07
0"
0(
1N
18
1$
#380000
b111 !
b110 !
0I
1E
0L
1K
1S
0Q
17
1L
1"
0R
0:
07
0"
0*
#390000
b111 !
1I
0M
1V
1T
1R
1P
19
1:
1;
1<
1.
1,
1*
1(
0N
08
0$
#400000
b1111 !
b1011 !
b1001 !
b1000 !
0I
0E
0D
1G
0U
0K
0S
0O
0V
0T
0R
0:
0;
0<
0.
0,
0*
0P
09
0(
#410000
b1001 !
1I
0L
1K
1R
1:
17
1L
1"
1*
07
0"
#420000
b1011 !
b1010 !
0I
1E
1S
1V
0R
1[
1Y
1X
1>
1?
1A
1C
0:
1<
1.
0*
1-
1+
1)
1#
#430000
b1011 !
1I
1M
0K
1T
1R
1P
19
1:
1;
0L
1,
1*
1(
17
1"
#440000
b1111 !
b1101 !
b1100 !
0I
0E
1D
1U
0M
1K
1H
0V
0T
0R
0P
1N
18
09
0:
0;
0<
1L
0.
0,
0*
0(
1$
0N
1T
1J
16
1;
08
07
0"
0$
1,
1&
#450000
b1101 !
1I
1R
0J
06
1:
1*
0&
#460000
b1111 !
b1110 !
0I
1E
0K
0S
1Q
1O
0H
0R
1J
16
0:
0L
0*
1&
0T
1R
1P
0J
06
19
1:
0;
17
1"
0,
1*
1(
0&
#470000
b1111 !
1I
1M
1L
0P
09
07
0"
0(
1N
18
1$
#480000
b11111 !
b10111 !
b10011 !
b10001 !
b10000 !
0I
0E
0D
0G
1F
0L
1K
1S
0Q
0O
1P
19
17
1L
1"
1(
0R
0P
09
0:
07
0"
0*
0(
#490000
b10001 !
1I
0U
0M
0K
1T
1R
1P
19
1:
1;
1,
1*
1(
1V
0N
08
1<
1.
0$
#500000
b10011 !
b10010 !
0I
1E
1U
0L
1K
0S
0V
0T
0R
0P
09
0:
0;
0<
17
1L
1"
0.
0,
0*
0(
07
0"
#510000
b10011 !
1I
0U
1V
1R
1:
1<
1.
1*
0V
0<
0.
#520000
b10111 !
b10101 !
b10100 !
0I
0E
1D
1M
0K
1S
1V
0R
0Y
0X
1W
0Z
0B
1=
0>
0?
0A
0:
1<
1.
0*
0+
0)
0#
1'
0/
#530000
b10101 !
1I
0M
0L
1T
1R
1P
19
1:
1;
17
1"
1,
1*
1(
#540000
b10111 !
b10110 !
0I
1E
1L
1K
1H
0V
0T
0R
0P
09
0:
0;
0<
07
0"
0.
0,
0*
0(
1T
1J
16
1;
1,
1&
#550000
b10111 !
1I
1R
0J
06
1:
1*
0&
#560000
b11111 !
b11011 !
b11001 !
b11000 !
0I
0E
0D
1G
1U
0K
0S
1Q
1O
0H
0R
1J
16
0:
0L
0*
1&
0T
1R
1P
0J
06
19
1:
0;
17
1"
0,
1*
1(
0&
#570000
b11001 !
1I
0U
1M
1L
1K
0P
09
07
0"
0(
1N
18
1$
#580000
b11011 !
b11010 !
0I
1E
1U
1S
0Q
0O
1V
1P
19
1<
1.
1(
0V
0R
0P
09
0:
0<
0.
0*
0(
#590000
b11011 !
1I
0U
0M
0K
1T
1R
1P
19
1:
1;
1,
1*
1(
1V
0N
08
1<
1.
0$
#600000
b11111 !
b11101 !
b11100 !
0I
0E
1D
1K
0S
0V
0T
0R
0P
09
0:
0;
0<
0.
0,
0*
0(
#610000
b11101 !
1I
1M
1R
1:
1*
#620000
b11111 !
b11110 !
0I
1E
0K
1S
1V
0R
1Y
0W
0=
1A
0:
1<
1.
0*
1+
0'
#630000
b11111 !
1I
0M
0L
1T
1R
1P
19
1:
1;
17
1"
1,
1*
1(
#640000
b1111 !
b111 !
b11 !
b1 !
b0 !
0I
0E
0D
0G
0F
1L
1K
0T
0R
0P
0[
0Y
1Z
1B
0A
0C
09
0:
0;
07
0"
0,
0*
0(
0-
0+
1/
#650000
b1 !
1I
1M
0K
1T
1R
1P
19
1:
1;
0L
1,
1*
1(
17
1"
#660000
b11 !
b10 !
0I
1E
1L
1K
1H
0V
0T
0R
0P
09
0:
0;
0<
07
0"
0.
0,
0*
0(
1T
1J
16
1;
1,
1&
#670000
b11 !
1I
0M
1R
0J
06
1:
1*
0&
#680000
b111 !
b101 !
b100 !
0I
0E
1D
1U
0K
0S
1Q
1O
0H
1V
0R
1J
16
0:
1<
0L
1.
0*
1&
0V
0T
1R
1P
0J
06
19
1:
0;
0<
17
1"
0.
0,
1*
1(
0&
#690000
b101 !
1I
1M
1L
0P
09
07
0"
0(
1N
18
1$
#700000
b111 !
b110 !
0I
1E
0L
1K
1S
0Q
17
1L
1"
0R
0:
07
0"
0*
#710000
b111 !
1I
0M
1V
1T
1R
1P
19
1:
1;
1<
1.
1,
1*
1(
0N
08
0$
#720000
b1111 !
b1011 !
b1001 !
b1000 !
0I
0E
0D
1G
0U
0K
0S
0O
0V
0T
0R
0:
0;
0<
0.
0,
0*
0P
09
0(
#730000
b1001 !
1I
0L
1K
1R
1:
17
1L
1"
1*
07
0"
#740000
b1011 !
b1010 !
0I
1E
1S
1V
0R
1[
1Y
1X
1>
1?
1A
1C
0:
1<
1.
0*
1-
1+
1)
1#
#750000
b1011 !
1I
1M
0K
1T
1R
1P
19
1:
1;
0L
1,
1*
1(
17
1"
#760000
b1111 !
b1101 !
b1100 !
0I
0E
1D
1U
0M
1K
1H
0V
0T
0R
0P
1N
18
09
0:
0;
0<
1L
0.
0,
0*
0(
1$
0N
1T
1J
16
1;
08
07
0"
0$
1,
1&
#770000
b1101 !
1I
1R
0J
06
1:
1*
0&
#780000
b1111 !
b1110 !
0I
1E
0K
0S
1Q
1O
0H
0R
1J
16
0:
0L
0*
1&
0T
1R
1P
0J
06
19
1:
0;
17
1"
0,
1*
1(
0&
#790000
b1111 !
1I
1M
1L
0P
09
07
0"
0(
1N
18
1$
#800000
b11111 !
b10111 !
b10011 !
b10001 !
b10000 !
0I
0E
0D
0G
1F
0L
1K
1S
0Q
0O
1P
19
17
1L
1"
1(
0R
0P
09
0:
07
0"
0*
0(
#810000
b10001 !
1I
0U
0M
0K
1T
1R
1P
19
1:
1;
1,
1*
1(
1V
0N
08
1<
1.
0$
#820000
b10011 !
b10010 !
0I
1E
1U
0L
1K
0S
0V
0T
0R
0P
09
0:
0;
0<
17
1L
1"
0.
0,
0*
0(
07
0"
#830000
b10011 !
1I
0U
1V
1R
1:
1<
1.
1*
0V
0<
0.
#840000
b10111 !
b10101 !
b10100 !
0I
0E
1D
1M
0K
1S
1V
0R
0Y
0X
1W
0Z
0B
1=
0>
0?
0A
0:
1<
1.
0*
0+
0)
0#
1'
0/
#850000
b10101 !
1I
0M
0L
1T
1R
1P
19
1:
1;
17
1"
1,
1*
1(
#860000
b10111 !
b10110 !
0I
1E
1L
1K
1H
0V
0T
0R
0P
09
0:
0;
0<
07
0"
0.
0,
0*
0(
1T
1J
16
1;
1,
1&
#870000
b10111 !
1I
1R
0J
06
1:
1*
0&
#880000
b11111 !
b11011 !
b11001 !
b11000 !
0I
0E
0D
1G
1U
0K
0S
1Q
1O
0H
0R
1J
16
0:
0L
0*
1&
0T
1R
1P
0J
06
19
1:
0;
17
1"
0,
1*
1(
0&
#890000
b11001 !
1I
0U
1M
1L
1K
0P
09
07
0"
0(
1N
18
1$
#900000
b11011 !
b11010 !
0I
1E
1U
1S
0Q
0O
1V
1P
19
1<
1.
1(
0V
0R
0P
09
0:
0<
0.
0*
0(
#910000
b11011 !
1I
0U
0M
0K
1T
1R
1P
19
1:
1;
1,
1*
1(
1V
0N
08
1<
1.
0$
#920000
b11111 !
b11101 !
b11100 !
0I
0E
1D
1K
0S
0V
0T
0R
0P
09
0:
0;
0<
0.
0,
0*
0(
#930000
b11101 !
1I
1M
1R
1:
1*
#940000
b11111 !
b11110 !
0I
1E
0K
1S
1V
0R
1Y
0W
0=
1A
0:
1<
1.
0*
1+
0'
#950000
b11111 !
1I
0M
0L
1T
1R
1P
19
1:
1;
17
1"
1,
1*
1(
#960000
b1111 !
b111 !
b11 !
b1 !
b0 !
0I
0E
0D
0G
0F
1L
1K
0T
0R
0P
0[
0Y
1Z
1B
0A
0C
09
0:
0;
07
0"
0,
0*
0(
0-
0+
1/
#970000
b1 !
1I
1M
0K
1T
1R
1P
19
1:
1;
0L
1,
1*
1(
17
1"
#980000
b11 !
b10 !
0I
1E
1L
1K
1H
0V
0T
0R
0P
09
0:
0;
0<
07
0"
0.
0,
0*
0(
1T
1J
16
1;
1,
1&
#990000
b11 !
1I
0M
1R
0J
06
1:
1*
0&
